Clemens Brunner - Warming stripes with R
…
Note

The CSV files are not permanently available, so I trigger their creation with the url() function before downloading.

Let’s call this function to get our data:

# get station ID at https://data.giss.nasa.gov/gistemp/station_data_v4_globe/
id = "AU000016402"
(df = read_station(id))

# A tibble: 143 × 18
    YEAR   JAN   FEB   MAR   APR   MAY   JUN   JUL   AUG   SEP   OCT   NOV   DEC
   <dbl> <dbl> <dbl> <dbl> <dbl> <dbl> <dbl> <dbl> <dbl> <dbl> <dbl> <dbl> <dbl>
 1  1880 -5.58 -3.58  2.52 11.1   11.8  15.6  19.3  16.3  14.1  9.42  3.02  1.52
 2  1881 -6.48 -1.88  4.32  6.42  12.4  16.0  18.9  17.7  12.7  5.82  1.32 -0.88
 3  1882 -1.68  0.02  8.52  8.12  13.8  15.1  18.3  16.3  13.7  9.92  3.02  0.12
 4  1883 -3.28  0.42 -0.78  6.52  13.2  17.2  17.6  17.0  13.5  8.92  2.02 -2.48
 5  1884 -1.48  0.22  5.12  7.82  13.8  14.1  19.1  16.8  13.9  7.32  0.62 -0.78
 6  1885 -4.58  0.02  5.02  9.72  11.5  17.1  19.4  16.5  14.3  8.12  3.42 -3.28
 7  1886 -2.88 -0.38  0.22  9.32  13.2  15.9  18.3  17.5  15.3  9.72  3.42  0.22
 8  1887 -3.48 -3.48  1.42  8.12  12.3  16.4  19.7  17.2  14.8  6.22  3.12 -2.28
 9  1888 -4.58 -2.68  2.32  7.22  13.5  17.2  16.5  17.7  14.0  6.42  0.22 -1.49
10  1889 -3.99 -2.38  1.91  8.01  15.5  18.5  17.7  16.6  11.6  9.81  1.71 -4.29
# … with 133 more rows, and 5 more variables: `D-J-F` <dbl>, `M-A-M` <dbl>,
#   `J-J-A` <dbl>, `S-O-N` <dbl>, metANN <dbl>
…
